{
  "mc_schema": 7,
  "sc_bsabE": null,
  "sc_code": "UBF",
  "sc_comment": "Rev. i BIP 1.3",
  "sc_id": 287,
  "sc_maincategory": 47,
  "sc_title": "Börvärdesomställare för nivå",
  "sc_usercode_syntax": "GL0xx",
  "etim": null,
  "aff": null
}