{
  "mc_schema": 7,
  "sc_bsabE": null,
  "sc_code": "UBF",
  "sc_comment": "Rev. i BIP 1.3",
  "sc_id": 293,
  "sc_maincategory": 47,
  "sc_title": "Vakt Larmande-stegvis, nivå",
  "sc_usercode_syntax": "GL6xx",
  "etim": null,
  "aff": null
}