{
  "mc_schema": 3,
  "sc_bsabE": null,
  "sc_code": "SQC.2",
  "sc_comment": "",
  "sc_id": 396,
  "sc_maincategory": 95,
  "sc_title": "Asynkronmotor",
  "sc_usercode_syntax": "MA1xx",
  "etim": null,
  "aff": null
}