{
  "mc_schema": 3,
  "sc_bsabE": null,
  "sc_code": "SHB",
  "sc_comment": "",
  "sc_id": 407,
  "sc_maincategory": 96,
  "sc_title": "Reservkraftsaggregat",
  "sc_usercode_syntax": "GA2xx",
  "etim": null,
  "aff": null
}