{
  "mc_schema": 3,
  "sc_bsabE": null,
  "sc_code": "SCH",
  "sc_comment": "",
  "sc_id": 416,
  "sc_maincategory": 101,
  "sc_title": "Koaxialkabel",
  "sc_usercode_syntax": "WG4xx",
  "etim": null,
  "aff": null
}