{
  "mc_schema": 3,
  "sc_bsabE": null,
  "sc_code": "SCJ",
  "sc_comment": "",
  "sc_id": 417,
  "sc_maincategory": 101,
  "sc_title": "Fiberkabel",
  "sc_usercode_syntax": "WH1xx",
  "etim": null,
  "aff": null
}