{
  "mc_schema": 3,
  "sc_bsabE": null,
  "sc_code": "SBB.2",
  "sc_comment": "",
  "sc_id": 418,
  "sc_maincategory": 103,
  "sc_title": "Fundament",
  "sc_usercode_syntax": "UA1xx",
  "etim": null,
  "aff": null
}