{
  "mc_schema": 3,
  "sc_bsabE": null,
  "sc_code": "SBD.32",
  "sc_comment": "Rev. BSABwr i BIP 1.8",
  "sc_id": 426,
  "sc_maincategory": 103,
  "sc_title": "Trådstege, lätt",
  "sc_usercode_syntax": "UB6xx",
  "etim": null,
  "aff": null
}