{
  "mc_schema": 3,
  "sc_bsabE": null,
  "sc_code": "SBF.3",
  "sc_comment": "",
  "sc_id": 430,
  "sc_maincategory": 103,
  "sc_title": "Installationskanal",
  "sc_usercode_syntax": "UC3xx",
  "etim": null,
  "aff": null
}