{
  "mc_schema": 3,
  "sc_bsabE": null,
  "sc_code": "SKC.21",
  "sc_comment": "",
  "sc_id": 436,
  "sc_maincategory": 278,
  "sc_title": "Kontaktskena ≤ 1 000 VAC",
  "sc_usercode_syntax": "WC1xx",
  "etim": null,
  "aff": null
}