{
  "mc_schema": 3,
  "sc_bsabE": null,
  "sc_code": "SLB",
  "sc_comment": "",
  "sc_id": 438,
  "sc_maincategory": 109,
  "sc_title": "Strömställare, kraft",
  "sc_usercode_syntax": "QA2xx",
  "etim": null,
  "aff": null
}