{
  "mc_schema": 3,
  "sc_bsabE": null,
  "sc_code": "SEB.211",
  "sc_comment": "",
  "sc_id": 455,
  "sc_maincategory": 114,
  "sc_title": "Termiskt skydd",
  "sc_usercode_syntax": "FN1xx",
  "etim": null,
  "aff": null
}