{
  "mc_schema": 3,
  "sc_bsabE": null,
  "sc_code": "SEB.25",
  "sc_comment": "",
  "sc_id": 456,
  "sc_maincategory": 114,
  "sc_title": "Effektmätande skydd",
  "sc_usercode_syntax": "FN2xx",
  "etim": null,
  "aff": null
}