{
  "mc_schema": 3,
  "sc_bsabE": null,
  "sc_code": "SPB.2",
  "sc_comment": "",
  "sc_id": 473,
  "sc_maincategory": 118,
  "sc_title": "Elvärmekabel",
  "sc_usercode_syntax": "EB5xx",
  "etim": null,
  "aff": null
}