{
  "mc_schema": 4,
  "sc_bsabE": null,
  "sc_code": "TFC.111",
  "sc_comment": "",
  "sc_id": 488,
  "sc_maincategory": 107,
  "sc_title": "Centralapparat",
  "sc_usercode_syntax": "F1K1xx",
  "etim": null,
  "aff": null
}