{
  "mc_schema": 4,
  "sc_bsabE": null,
  "sc_code": "TEB.1",
  "sc_comment": "",
  "sc_id": 507,
  "sc_maincategory": 98,
  "sc_title": "Anropsapparat",
  "sc_usercode_syntax": "C1S2xx",
  "etim": null,
  "aff": null
}