{
  "mc_schema": 4,
  "sc_bsabE": null,
  "sc_code": "TEB.431",
  "sc_comment": "",
  "sc_id": 519,
  "sc_maincategory": 106,
  "sc_title": "Nummertablå",
  "sc_usercode_syntax": "C5P2xx",
  "etim": null,
  "aff": null
}