{
  "mc_schema": 4,
  "sc_bsabE": null,
  "sc_code": "TBB.115",
  "sc_comment": "",
  "sc_id": 531,
  "sc_maincategory": 93,
  "sc_title": "Gränslägesbrytare",
  "sc_usercode_syntax": "H1B8xx",
  "etim": null,
  "aff": null
}