{
  "mc_schema": 4,
  "sc_bsabE": null,
  "sc_code": "TBB.24",
  "sc_comment": "",
  "sc_id": 540,
  "sc_maincategory": 99,
  "sc_title": "Vibrationsdetektor",
  "sc_usercode_syntax": "H2B4xx",
  "etim": null,
  "aff": null
}