{
  "mc_schema": 4,
  "sc_bsabE": null,
  "sc_code": "TBB.21",
  "sc_comment": "",
  "sc_id": 546,
  "sc_maincategory": 99,
  "sc_title": "Centralapparat",
  "sc_usercode_syntax": "H2K1xx",
  "etim": null,
  "aff": null
}