{
  "mc_schema": 4,
  "sc_bsabE": null,
  "sc_code": "TBB.26",
  "sc_comment": "",
  "sc_id": 548,
  "sc_maincategory": 99,
  "sc_title": "Överföringsutrustning",
  "sc_usercode_syntax": "H2K3xx",
  "etim": null,
  "aff": null
}