{
  "mc_schema": 4,
  "sc_bsabE": null,
  "sc_code": "TBB.23",
  "sc_comment": "",
  "sc_id": 551,
  "sc_maincategory": 99,
  "sc_title": "Manöverenhet",
  "sc_usercode_syntax": "H2S1xx",
  "etim": null,
  "aff": null
}