{
  "mc_schema": 4,
  "sc_bsabE": null,
  "sc_code": "TBB.33",
  "sc_comment": "",
  "sc_id": 559,
  "sc_maincategory": 110,
  "sc_title": "Manöverapparat",
  "sc_usercode_syntax": "H5S1xx",
  "etim": null,
  "aff": null
}