{
  "mc_schema": 1,
  "sc_bsabE": null,
  "sc_code": "QLB.22",
  "sc_comment": "",
  "sc_id": 1215,
  "sc_maincategory": 212,
  "sc_title": "Kanaler av stålplåt, svartplåt 1,5 mm svetsad",
  "sc_usercode_syntax": "21",
  "etim": null,
  "aff": null
}