{
  "mc_schema": 1,
  "sc_bsabE": null,
  "sc_code": "QLB.12",
  "sc_comment": "",
  "sc_id": 1218,
  "sc_maincategory": 212,
  "sc_title": "Cirkulära kanaler av rostfri stålplåt",
  "sc_usercode_syntax": "3",
  "etim": null,
  "aff": null
}