{
  "mc_schema": 1,
  "sc_bsabE": null,
  "sc_code": "QLB.22",
  "sc_comment": "",
  "sc_id": 1219,
  "sc_maincategory": 212,
  "sc_title": "Rostfri Rektangulär kanal, helsvetat utförande",
  "sc_usercode_syntax": "31",
  "etim": null,
  "aff": null
}