{
  "mc_schema": 1,
  "sc_bsabE": null,
  "sc_code": "QLB.15",
  "sc_comment": "",
  "sc_id": 1227,
  "sc_maincategory": 212,
  "sc_title": "Flexibla metallkanaler, cirkulära",
  "sc_usercode_syntax": "8",
  "etim": null,
  "aff": null
}