{
  "mc_schema": 1,
  "sc_bsabE": null,
  "sc_code": "QLB",
  "sc_comment": "Rev. i BIP 2.1",
  "sc_id": 1229,
  "sc_maincategory": 212,
  "sc_title": "Varmförzinkad kanal, Brandklass Förisolerade / dubbelmantlade kanaler",
  "sc_usercode_syntax": "91",
  "etim": null,
  "aff": null
}