{
  "mc_schema": 2,
  "sc_bsabE": null,
  "sc_code": "PLD.21",
  "sc_comment": "Rev i BIP 1.3",
  "sc_id": 1235,
  "sc_maincategory": 12,
  "sc_title": "Tryckkärl för värmebärare",
  "sc_usercode_syntax": "ACK6xx",
  "etim": null,
  "aff": null
}