{
  "mc_schema": 2,
  "sc_bsabE": null,
  "sc_code": "PSF.14",
  "sc_comment": "",
  "sc_id": 1243,
  "sc_maincategory": 28,
  "sc_title": "Avluftare",
  "sc_usercode_syntax": "AL1xx",
  "etim": "EC010047",
  "aff": null
}