{
  "mc_schema": 2,
  "sc_bsabE": null,
  "sc_code": "PSB",
  "sc_comment": "",
  "sc_id": 1260,
  "sc_maincategory": 24,
  "sc_title": "Avstängningsventiler, Avloppssystem",
  "sc_usercode_syntax": "AV3xx",
  "etim": "EC011343;EC010910;EC011426;EC011462;EC010163;EC010917",
  "aff": null
}