{
  "mc_schema": 5,
  "sc_bsabE": null,
  "sc_code": "PSB",
  "sc_comment": "",
  "sc_id": 1264,
  "sc_maincategory": 312,
  "sc_title": "Avstängningsventiler, Gassystem, medicinsk luft",
  "sc_usercode_syntax": "AV8xx",
  "etim": "EC011343;EC010120",
  "aff": null
}