{
  "mc_schema": 2,
  "sc_bsabE": null,
  "sc_code": "PPC.651",
  "sc_comment": "",
  "sc_id": 1266,
  "sc_maincategory": 154,
  "sc_title": "Avtappningsanordning",
  "sc_usercode_syntax": "AVT1xx",
  "etim": null,
  "aff": null
}