{
  "mc_schema": 2,
  "sc_bsabE": null,
  "sc_code": "PVB.23",
  "sc_comment": "Tvättställsblandare och tvättränneblandare har båda BL1xx",
  "sc_id": 1324,
  "sc_maincategory": 182,
  "sc_title": "Tvättställsblandare. ",
  "sc_usercode_syntax": "BL1xx",
  "etim": "EC011328",
  "aff": null
}