{
  "mc_schema": 2,
  "sc_bsabE": null,
  "sc_code": "PVB.21",
  "sc_comment": "Rev underkategori i BIP 1.7",
  "sc_id": 1327,
  "sc_maincategory": 182,
  "sc_title": "Duschblandare och duschanordningar",
  "sc_usercode_syntax": "BL3xx",
  "etim": "EC011329",
  "aff": null
}