{
  "mc_schema": 2,
  "sc_bsabE": null,
  "sc_code": "PNU.5211",
  "sc_comment": "Rev i BIP 1.3",
  "sc_id": 1350,
  "sc_maincategory": 153,
  "sc_title": "Ledningar av PVC-rör, utomhusavloppsrör",
  "sc_usercode_syntax": "C4",
  "etim": null,
  "aff": null
}