{
  "mc_schema": 2,
  "sc_bsabE": null,
  "sc_code": "XNB.2",
  "sc_comment": "",
  "sc_id": 1367,
  "sc_maincategory": 273,
  "sc_title": "Dragbänk (VS)",
  "sc_usercode_syntax": "DBK1xx",
  "etim": null,
  "aff": null
}