{
  "mc_schema": 2,
  "sc_bsabE": null,
  "sc_code": "PHB.12",
  "sc_comment": "",
  "sc_id": 1383,
  "sc_maincategory": 136,
  "sc_title": "Elpanna",
  "sc_usercode_syntax": "EP0xx",
  "etim": null,
  "aff": null
}