{
  "mc_schema": 1,
  "sc_bsabE": null,
  "sc_code": "QME.2",
  "sc_comment": "",
  "sc_id": 1396,
  "sc_maincategory": 74,
  "sc_title": "Takdon för infällt montage ",
  "sc_usercode_syntax": "FD2xx",
  "etim": null,
  "aff": null
}