{
  "mc_schema": 1,
  "sc_bsabE": null,
  "sc_code": "QEC",
  "sc_comment": "",
  "sc_id": 1402,
  "sc_maincategory": 194,
  "sc_title": "Axialfläkt, frånluft",
  "sc_usercode_syntax": "FF4xx",
  "etim": null,
  "aff": null
}