{
  "mc_schema": 2,
  "sc_bsabE": null,
  "sc_code": "PTB.51",
  "sc_comment": "Rev BSABwr i BIP 1.1",
  "sc_id": 1411,
  "sc_maincategory": 173,
  "sc_title": "Icke kanalansluten Fläktluftvärmare",
  "sc_usercode_syntax": "FLV1xx",
  "etim": "EC011330",
  "aff": null
}