{
  "mc_schema": 7,
  "sc_bsabE": null,
  "sc_code": "UBA",
  "sc_comment": "Ny i BIP 1.3",
  "sc_id": 1433,
  "sc_maincategory": 240,
  "sc_title": "Givare för två eller flera funktioner. Med börvärdesomställare",
  "sc_usercode_syntax": "GA0xx",
  "etim": null,
  "aff": null
}