{
  "mc_schema": 8,
  "sc_bsabE": null,
  "sc_code": "NSZ",
  "sc_comment": "",
  "sc_id": 1449,
  "sc_maincategory": 128,
  "sc_title": "Handbrandsläckare",
  "sc_usercode_syntax": "HB4xx",
  "etim": null,
  "aff": null
}