{
  "mc_schema": 2,
  "sc_bsabE": null,
  "sc_code": "RBA.14",
  "sc_comment": "",
  "sc_id": 1461,
  "sc_maincategory": 222,
  "sc_title": "Rörskål av mineralull med ytskikt av armerad aluminiumfolie. Serie 3A (AMA 12)",
  "sc_usercode_syntax": "-J3",
  "etim": null,
  "aff": null
}