{
  "mc_schema": 1,
  "sc_bsabE": null,
  "sc_code": "RBA.22",
  "sc_comment": "Rev. BSABwr i BIP 1.6",
  "sc_id": 1479,
  "sc_maincategory": 430,
  "sc_title": "Kondensisolering utvändigt, med lamellmattor av mineralull 40 mm beklädda utv med al. folie för cirkulära kanaler",
  "sc_usercode_syntax": "-K404",
  "etim": null,
  "aff": null
}