{
  "mc_schema": 1,
  "sc_bsabE": null,
  "sc_code": "RBA.22",
  "sc_comment": "Rev. BSABwr i BIP 1.6",
  "sc_id": 1484,
  "sc_maincategory": 224,
  "sc_title": "Kondensisolering utvändigt, med lamellmattor av mineralull 60 mm beklädda utv med al. folie för rektangulära kanaler",
  "sc_usercode_syntax": "-K406",
  "etim": null,
  "aff": null
}