{
  "mc_schema": 2,
  "sc_bsabE": null,
  "sc_code": "PNU.312",
  "sc_comment": "",
  "sc_id": 1496,
  "sc_maincategory": 153,
  "sc_title": "Förkromade kopparrör",
  "sc_usercode_syntax": "K5",
  "etim": null,
  "aff": null
}