{
  "mc_schema": 2,
  "sc_bsabE": null,
  "sc_code": "PSF.13",
  "sc_comment": "",
  "sc_id": 1500,
  "sc_maincategory": 28,
  "sc_title": "Kondensatavledare, ångfälla",
  "sc_usercode_syntax": "KAV0xx",
  "etim": "EC011453",
  "aff": null
}