{
  "mc_schema": 1,
  "sc_bsabE": null,
  "sc_code": "QEA.3",
  "sc_comment": "Justerad i BIP 1.6",
  "sc_id": 1503,
  "sc_maincategory": 192,
  "sc_title": "Cirkulär kanalfläkt",
  "sc_usercode_syntax": "KF1xx",
  "etim": null,
  "aff": null
}