{
  "mc_schema": 2,
  "sc_bsabE": null,
  "sc_code": "PKF",
  "sc_comment": "",
  "sc_id": 1514,
  "sc_maincategory": 145,
  "sc_title": "Kompressor",
  "sc_usercode_syntax": "KO5xx",
  "etim": null,
  "aff": null
}