{
  "mc_schema": 1,
  "sc_bsabE": null,
  "sc_code": "QMD.1",
  "sc_comment": "",
  "sc_id": 1567,
  "sc_maincategory": 73,
  "sc_title": "Ljuddämpande överluftsdon i vägg",
  "sc_usercode_syntax": "OD1xx",
  "etim": null,
  "aff": null
}