{
  "mc_schema": 2,
  "sc_bsabE": null,
  "sc_code": "PKB",
  "sc_comment": "",
  "sc_id": 1582,
  "sc_maincategory": 142,
  "sc_title": "Pump för dosering",
  "sc_usercode_syntax": "PDO2xx",
  "etim": "EC010267",
  "aff": null
}