{
  "mc_schema": 2,
  "sc_bsabE": null,
  "sc_code": "ESE.73",
  "sc_comment": "",
  "sc_id": 1586,
  "sc_maincategory": 274,
  "sc_title": "Pumpgrop",
  "sc_usercode_syntax": "PGR3xx",
  "etim": null,
  "aff": null
}