{
  "mc_schema": 8,
  "sc_bsabE": null,
  "sc_code": "PKB",
  "sc_comment": "",
  "sc_id": 1592,
  "sc_maincategory": 143,
  "sc_title": "Pump för tryckstegring av brandvatten",
  "sc_usercode_syntax": "PPB4xx",
  "etim": "EC010980;EC011334;EC011333;EC010732",
  "aff": null
}