{
  "mc_schema": 2,
  "sc_bsabE": null,
  "sc_code": "PKB",
  "sc_comment": "",
  "sc_id": 1595,
  "sc_maincategory": 142,
  "sc_title": "Pump för spillvatten",
  "sc_usercode_syntax": "PSP3xx",
  "etim": "EC010860;EC010055;EC011009",
  "aff": null
}