{
  "mc_schema": 2,
  "sc_bsabE": null,
  "sc_code": "PNU.221",
  "sc_comment": "Rev BSABwr mm i BIP 1.5",
  "sc_id": 1603,
  "sc_maincategory": 153,
  "sc_title": "Ledningar av rostfritt syrafast stål enligt EN 1.4404, avloppsrör, muffskarvning",
  "sc_usercode_syntax": "R10",
  "etim": "EC010950",
  "aff": null
}