{
  "mc_schema": 2,
  "sc_bsabE": null,
  "sc_code": "PTB.3",
  "sc_comment": "",
  "sc_id": 1616,
  "sc_maincategory": 173,
  "sc_title": "Konvektor",
  "sc_usercode_syntax": "RAD3xx",
  "etim": "EC010218;EC010152;EC011024",
  "aff": null
}