{
  "mc_schema": 2,
  "sc_bsabE": null,
  "sc_code": "PSE.11",
  "sc_comment": "Rev. BSABwr i BIP 1.1",
  "sc_id": 1636,
  "sc_maincategory": 27,
  "sc_title": "Temperaturstyrd ventil för tappvatten",
  "sc_usercode_syntax": "RT2xx",
  "etim": null,
  "aff": null
}