{
  "mc_schema": 6,
  "sc_bsabE": null,
  "sc_code": "PB-.21321",
  "sc_comment": "Rev i BIP 1.5. Förisolerad ihop med tex -X01",
  "sc_id": 1652,
  "sc_maincategory": 130,
  "sc_title": "Tryckkärlsrör stål EN 10217-1 + PUR-isolering och PE mantel, kulvertrör singel.",
  "sc_usercode_syntax": "S7",
  "etim": null,
  "aff": null
}