{
  "mc_schema": 8,
  "sc_bsabE": null,
  "sc_code": "PVD",
  "sc_comment": "",
  "sc_id": 1685,
  "sc_maincategory": 185,
  "sc_title": "Stigarledningsskåp",
  "sc_usercode_syntax": "SLS1xx",
  "etim": null,
  "aff": null
}