{
  "mc_schema": 7,
  "sc_bsabE": null,
  "sc_code": "UEC.14",
  "sc_comment": "",
  "sc_id": 1716,
  "sc_maincategory": 255,
  "sc_title": "5 Ställdon, Ventil kontinuerlig med fjäder mot stängt läge",
  "sc_usercode_syntax": "STV5xx",
  "etim": null,
  "aff": null
}