{
  "mc_schema": 7,
  "sc_bsabE": null,
  "sc_code": "TEB.111",
  "sc_comment": "Rev. i BIP ver 1.1",
  "sc_id": 1745,
  "sc_maincategory": 234,
  "sc_title": "Tryckknappslåda. 3 Nödstopp",
  "sc_usercode_syntax": "TL3xx",
  "etim": null,
  "aff": null
}