{
  "mc_schema": 7,
  "sc_bsabE": null,
  "sc_code": "TEB.111",
  "sc_comment": "Rev. i BIP ver 1.1",
  "sc_id": 1747,
  "sc_maincategory": 234,
  "sc_title": "Tryckknappslåda. 5 Enl. Spec",
  "sc_usercode_syntax": "TL5xx",
  "etim": null,
  "aff": null
}