{
  "mc_schema": 2,
  "sc_bsabE": null,
  "sc_code": "PSE.2",
  "sc_comment": "",
  "sc_id": 1749,
  "sc_maincategory": 27,
  "sc_title": "Tryckstabilisator",
  "sc_usercode_syntax": "TR1xx",
  "etim": null,
  "aff": null
}