{
  "mc_schema": 2,
  "sc_bsabE": null,
  "sc_code": "PLC.41",
  "sc_comment": "",
  "sc_id": 1750,
  "sc_maincategory": 147,
  "sc_title": "Tryckhållningstank",
  "sc_usercode_syntax": "TRH1xx",
  "etim": null,
  "aff": null
}