{
  "mc_schema": 2,
  "sc_bsabE": null,
  "sc_code": "PUC.13",
  "sc_comment": "",
  "sc_id": 1756,
  "sc_maincategory": 177,
  "sc_title": "Tvättställ av emaljerat stål",
  "sc_usercode_syntax": "TS3xx",
  "etim": "EC011550",
  "aff": null
}