{
  "mc_schema": 2,
  "sc_bsabE": null,
  "sc_code": "RBA.14",
  "sc_comment": "AMA 16",
  "sc_id": 1779,
  "sc_maincategory": 222,
  "sc_title": "Rörskål av mineralull med ytskikt av armerad aluminiumfolie. Diffusionstät. Tjocklek 30 mm",
  "sc_usercode_syntax": "-W30",
  "etim": null,
  "aff": null
}