{
  "mc_schema": 2,
  "sc_bsabE": null,
  "sc_code": "RBB.111",
  "sc_comment": "",
  "sc_id": 1780,
  "sc_maincategory": 223,
  "sc_title": "Isolering av syntetiskt cellgummi AF/Armaflex. AF-4. Eller motsvarande dimensionsserie av annat fabrikat",
  "sc_usercode_syntax": "-V4",
  "etim": null,
  "aff": null
}