{
  "mc_schema": 2,
  "sc_bsabE": null,
  "sc_code": "PUE.11",
  "sc_comment": "",
  "sc_id": 1791,
  "sc_maincategory": 179,
  "sc_title": "Golvmonterad klosett, P-lås",
  "sc_usercode_syntax": "VK2xx",
  "etim": "EC011318",
  "aff": null
}