{
  "mc_schema": 1,
  "sc_bsabE": null,
  "sc_code": "RBI.121",
  "sc_comment": "Används ej. Använd -B506 istället (BIP 1.4)",
  "sc_id": 1826,
  "sc_maincategory": 224,
  "sc_title": "Brandisolering utvändigt, med skivor av mineralull beklädda på stapelfiberflor utvändigt på rektangulära kanaler EI60",
  "sc_usercode_syntax": "-B306",
  "etim": null,
  "aff": null
}