{
  "mc_schema": 1,
  "sc_bsabE": null,
  "sc_code": "RBI.121",
  "sc_comment": "Används ej. Använd B606 istället (BIP 1.4)",
  "sc_id": 1831,
  "sc_maincategory": 224,
  "sc_title": "Brandisolering utvändigt, med skivor av mineralull beklädda utv med al. folie för rektangulära kanaler EI60. Utv. kondensisolering",
  "sc_usercode_syntax": "-BK406",
  "etim": null,
  "aff": null
}