{
  "mc_schema": 1,
  "sc_bsabE": null,
  "sc_code": "RBA.22",
  "sc_comment": "Rev. BSABwr i BIP 1.6",
  "sc_id": 1847,
  "sc_maincategory": 430,
  "sc_title": "Kondensisolering utvändigt, med fogtätade plattor av syntetiskt cellgummi, 19 mm,  utvändigt på rektangulära kanaler",
  "sc_usercode_syntax": "-K719",
  "etim": null,
  "aff": null
}