{
  "mc_schema": 1,
  "sc_bsabE": null,
  "sc_code": "REI.4",
  "sc_comment": "Rev BSABwr i BIP 1.5",
  "sc_id": 1861,
  "sc_maincategory": 395,
  "sc_title": "Ljudisolering invändigt, med skivor av mineralull 80 mm beklädda utv med glasfiberväv för rektangulära kanaler",
  "sc_usercode_syntax": "-L808",
  "etim": null,
  "aff": null
}