{
  "mc_schema": 1,
  "sc_bsabE": null,
  "sc_code": "RBI.221",
  "sc_comment": "tjocklek 60 mm",
  "sc_id": 1893,
  "sc_maincategory": 224,
  "sc_title": "Värmeisolering utvändigt, med nätmattor av mineralull 60 mm beklädda utv med al. folie för rektangulära kanaler",
  "sc_usercode_syntax": "-V206",
  "etim": null,
  "aff": null
}