{
  "mc_schema": 1,
  "sc_bsabE": null,
  "sc_code": "RBI.221",
  "sc_comment": "OBS: tjocklek 150 mm",
  "sc_id": 1923,
  "sc_maincategory": 224,
  "sc_title": "Värmeisolering utvändigt, med lamellmattor av mineralull 150 mm  för rektangulära kanaler",
  "sc_usercode_syntax": "-V315",
  "etim": null,
  "aff": null
}