{
  "mc_schema": 1,
  "sc_bsabE": null,
  "sc_code": "RBI.221",
  "sc_comment": "OBS: tjocklek 100 mm",
  "sc_id": 1939,
  "sc_maincategory": 224,
  "sc_title": "Värmeisolering utvändigt, med lamellmattor av mineralull 100 mm beklädda utv med al. folie för rektangulära kanaler",
  "sc_usercode_syntax": "-V410",
  "etim": null,
  "aff": null
}