{
  "mc_schema": 3,
  "sc_bsabE": null,
  "sc_code": "SKB.21",
  "sc_comment": "",
  "sc_id": 1970,
  "sc_maincategory": 278,
  "sc_title": "Inomhusställverk, högspänning",
  "sc_usercode_syntax": "AB2xx",
  "etim": null,
  "aff": null
}