{
  "mc_schema": 1,
  "sc_bsabE": null,
  "sc_code": "QMC",
  "sc_comment": "",
  "sc_id": 1974,
  "sc_maincategory": 72,
  "sc_title": "Mynningsdon, Jetspridare, Jetdysor, Tallriksventil",
  "sc_usercode_syntax": "TD8xx",
  "etim": null,
  "aff": null
}