{
  "mc_schema": 7,
  "sc_bsabE": "",
  "sc_code": "UBB.12",
  "sc_comment": "Ny i BIP 1.1",
  "sc_id": 2032,
  "sc_maincategory": 241,
  "sc_title": "Kanalmonterade Temperaturgivare, kontinuerliga elektriska, Styrande",
  "sc_usercode_syntax": "GT3xx",
  "etim": null,
  "aff": null
}