{
  "mc_schema": 1,
  "sc_bsabE": "",
  "sc_code": "RCF.13",
  "sc_comment": "Kod efter termisk isolering på kanaler. Ny i BIP ver 1.1",
  "sc_id": 2073,
  "sc_maincategory": 279,
  "sc_title": "Ytbekl. av plan perf. metalliserad stålplåt på inv isol. rekt. vent.kanal",
  "sc_usercode_syntax": "-Y13",
  "etim": null,
  "aff": null
}