{
  "mc_schema": 1,
  "sc_bsabE": "",
  "sc_code": "RCF.31",
  "sc_comment": "Kod efter termisk isolering på kanaler. Ny i BIP ver 1.1",
  "sc_id": 2080,
  "sc_maincategory": 279,
  "sc_title": "Ytbekl. av plan rostfri stålplåt på isol. vent.kanal",
  "sc_usercode_syntax": "-Y31",
  "etim": null,
  "aff": null
}