{
  "mc_schema": 16,
  "sc_bsabE": "",
  "sc_code": "ESE.522",
  "sc_comment": "Kod efter golvbrunns TypeID, Ny i BIP ver 1.1",
  "sc_id": 2089,
  "sc_maincategory": 361,
  "sc_title": "Golv med stålglättad yta",
  "sc_usercode_syntax": "B",
  "etim": null,
  "aff": null
}