{
  "mc_schema": 7,
  "sc_bsabE": "",
  "sc_code": "UGA.50",
  "sc_comment": "Ny i BIP ver 1.1",
  "sc_id": 2090,
  "sc_maincategory": 259,
  "sc_title": "Flödesmätare",
  "sc_usercode_syntax": "MF1xx",
  "etim": null,
  "aff": null
}