{
  "mc_schema": 2,
  "sc_bsabE": "",
  "sc_code": "PTC.32",
  "sc_comment": "Ny i BIP 1.1",
  "sc_id": 2212,
  "sc_maincategory": 36,
  "sc_title": "Egenkonvektionskylare för kylrum o d",
  "sc_usercode_syntax": "KBL2xx",
  "etim": null,
  "aff": null
}