{
  "mc_schema": 5,
  "sc_bsabE": null,
  "sc_code": "UGC.3",
  "sc_comment": "Ny i BIP 1.1",
  "sc_id": 2220,
  "sc_maincategory": 317,
  "sc_title": "Tryckövervakare för 5 gaser",
  "sc_usercode_syntax": "TRO5xx",
  "etim": null,
  "aff": null
}