{
  "mc_schema": 5,
  "sc_bsabE": null,
  "sc_code": "PVJ",
  "sc_comment": "Ny i BIP 1.1",
  "sc_id": 2222,
  "sc_maincategory": 42,
  "sc_title": "Nödavstängningslåda för 4 gaser",
  "sc_usercode_syntax": "NAV4xx",
  "etim": null,
  "aff": null
}