{
  "mc_schema": 11,
  "sc_bsabE": "27.B",
  "sc_code": "",
  "sc_comment": "BSAB-83: 31",
  "sc_id": 2234,
  "sc_maincategory": 351,
  "sc_title": "Innervägg bärande",
  "sc_usercode_syntax": "IVBxx",
  "etim": null,
  "aff": null
}