{
  "mc_schema": 11,
  "sc_bsabE": "27.C",
  "sc_code": "",
  "sc_comment": "BSAB-83: 31",
  "sc_id": 2235,
  "sc_maincategory": 351,
  "sc_title": "Yttervägg bärande",
  "sc_usercode_syntax": "YVBxx",
  "etim": null,
  "aff": null
}