{
  "mc_schema": 11,
  "sc_bsabE": "27.D/11",
  "sc_code": "",
  "sc_comment": "BSAB-83: 32",
  "sc_id": 2238,
  "sc_maincategory": 341,
  "sc_title": "Pelare - betong",
  "sc_usercode_syntax": "BPxx",
  "etim": null,
  "aff": null
}