{
  "mc_schema": 11,
  "sc_bsabE": "41.C",
  "sc_code": "",
  "sc_comment": "BSAB-83: 34",
  "sc_id": 2253,
  "sc_maincategory": 330,
  "sc_title": "Terrasbjälklag",
  "sc_usercode_syntax": "BJLTxx",
  "etim": null,
  "aff": null
}