{
  "mc_schema": 11,
  "sc_bsabE": "41.E",
  "sc_code": "",
  "sc_comment": "BSAB-83: 55",
  "sc_id": 2257,
  "sc_maincategory": 347,
  "sc_title": "Takfönster",
  "sc_usercode_syntax": "TFxx",
  "etim": null,
  "aff": null
}