{
  "mc_schema": 11,
  "sc_bsabE": "42.D",
  "sc_code": "",
  "sc_comment": "BSAB-83: 55",
  "sc_id": 2274,
  "sc_maincategory": 331,
  "sc_title": "Ytterdörr",
  "sc_usercode_syntax": "YDxx",
  "etim": null,
  "aff": null
}