{
  "mc_schema": 11,
  "sc_bsabE": "43.CB",
  "sc_code": "",
  "sc_comment": "BSAB-83: 63",
  "sc_id": 2281,
  "sc_maincategory": 351,
  "sc_title": "Innervägg icke bärande",
  "sc_usercode_syntax": "IVxx",
  "etim": null,
  "aff": null
}