{
  "mc_schema": 11,
  "sc_bsabE": "43.CC",
  "sc_code": "",
  "sc_comment": "BSAB-83: 65",
  "sc_id": 2285,
  "sc_maincategory": 337,
  "sc_title": "Lucka - stål",
  "sc_usercode_syntax": "LSxx",
  "etim": null,
  "aff": null
}