{
  "mc_schema": 11,
  "sc_bsabE": "45.CB",
  "sc_code": "NSK.41",
  "sc_comment": "BSAB-83: 69",
  "sc_id": 2298,
  "sc_maincategory": 349,
  "sc_title": "Handledare",
  "sc_usercode_syntax": "HLxx",
  "etim": null,
  "aff": null
}