{
  "mc_schema": 11,
  "sc_bsabE": "45.CB",
  "sc_code": "",
  "sc_comment": "BSAB-83: 66",
  "sc_id": 2299,
  "sc_maincategory": 349,
  "sc_title": "Invändig trappa",
  "sc_usercode_syntax": "TRxx",
  "etim": null,
  "aff": null
}