{
  "mc_schema": 11,
  "sc_bsabE": "46.C",
  "sc_code": "",
  "sc_comment": "BSAB-83: 76",
  "sc_id": 2325,
  "sc_maincategory": 352,
  "sc_title": "Kyl/Sval",
  "sc_usercode_syntax": "K/Sxx",
  "etim": null,
  "aff": null
}