{
  "mc_schema": 11,
  "sc_bsabE": "46.C",
  "sc_code": "",
  "sc_comment": "BSAB-83: 76",
  "sc_id": 2331,
  "sc_maincategory": 352,
  "sc_title": "Tvättmaskin",
  "sc_usercode_syntax": "TMxx",
  "etim": null,
  "aff": null
}