{
  "mc_schema": 11,
  "sc_bsabE": "46.C",
  "sc_code": "",
  "sc_comment": "BSAB-83: 84",
  "sc_id": 2335,
  "sc_maincategory": 343,
  "sc_title": "Tvättställ",
  "sc_usercode_syntax": "TVSxx",
  "etim": null,
  "aff": null
}