{
  "mc_schema": 1,
  "sc_bsabE": "",
  "sc_code": "QKB",
  "sc_comment": "",
  "sc_id": 2357,
  "sc_maincategory": 210,
  "sc_title": "Flexibel kanalljuddämpare",
  "sc_usercode_syntax": "LD5xx",
  "etim": null,
  "aff": null
}