{
  "mc_schema": 5,
  "sc_bsabE": "",
  "sc_code": "UGC.3",
  "sc_comment": "Ny i BIP 1.3",
  "sc_id": 2383,
  "sc_maincategory": 364,
  "sc_title": "Manometer för gaser",
  "sc_usercode_syntax": "MAN8xx",
  "etim": null,
  "aff": null
}