{
  "mc_schema": 2,
  "sc_bsabE": "",
  "sc_code": "PMC.25",
  "sc_comment": "Ny i BIP 1.3",
  "sc_id": 2392,
  "sc_maincategory": 14,
  "sc_title": "Doseringsapparater",
  "sc_usercode_syntax": "DOA0xx",
  "etim": null,
  "aff": null
}