{
  "mc_schema": 11,
  "sc_bsabE": "43.CC",
  "sc_code": "",
  "sc_comment": "BSAB-83: 55. Ny i v. 1.3",
  "sc_id": 2397,
  "sc_maincategory": 331,
  "sc_title": "Dörr (Generell)",
  "sc_usercode_syntax": "Dxx",
  "etim": null,
  "aff": null
}