{
  "mc_schema": 7,
  "sc_bsabE": "",
  "sc_code": "SLF.2",
  "sc_comment": "Rev BSABwr BIP 1.5",
  "sc_id": 2419,
  "sc_maincategory": 233,
  "sc_title": "Närvarogivare/detektor med ljusmätning. Gränsläge",
  "sc_usercode_syntax": "GRN9xx",
  "etim": null,
  "aff": null
}