{
  "mc_schema": 7,
  "sc_bsabE": "",
  "sc_code": "UBE.12",
  "sc_comment": "Rev i BIP 1.3",
  "sc_id": 2429,
  "sc_maincategory": 244,
  "sc_title": "Kanalmonterade Flödesgivare , kontinuerliga elektriska. Reglerande",
  "sc_usercode_syntax": "GF1xx",
  "etim": null,
  "aff": null
}