{
  "mc_schema": 7,
  "sc_bsabE": "",
  "sc_code": "UBK.12",
  "sc_comment": "Rev i BIP 1.3",
  "sc_id": 2445,
  "sc_maincategory": 247,
  "sc_title": "Kanalmonterade, Givare, Koncentration, kontinuerliga elektriska. Vakt",
  "sc_usercode_syntax": "GQ8xx",
  "etim": null,
  "aff": null
}