{
  "mc_schema": 5,
  "sc_bsabE": "",
  "sc_code": "XBA",
  "sc_comment": "Ny i BIP 1.3",
  "sc_id": 2483,
  "sc_maincategory": 367,
  "sc_title": "Medicinsk gaspanel",
  "sc_usercode_syntax": "MGP1xx",
  "etim": null,
  "aff": null
}