{
  "mc_schema": 3,
  "sc_bsabE": "",
  "sc_code": "SBC.21",
  "sc_comment": "Ny i BIP 1.3",
  "sc_id": 2484,
  "sc_maincategory": 368,
  "sc_title": "Stolpar och master för vägbelysning e d",
  "sc_usercode_syntax": "UJ1xx",
  "etim": null,
  "aff": null
}