{
  "mc_schema": 7,
  "sc_bsabE": "",
  "sc_code": "UBC.32",
  "sc_comment": "Nu i BIP 1.3",
  "sc_id": 2495,
  "sc_maincategory": 61,
  "sc_title": "Rörmonterade Tryckgivare, kontinuerliga elektriska, Vakt",
  "sc_usercode_syntax": "GP8xy",
  "etim": null,
  "aff": null
}