{
  "mc_schema": 7,
  "sc_bsabE": "",
  "sc_code": "UBD.11",
  "sc_comment": "Ny i BIP 1.3",
  "sc_id": 2514,
  "sc_maincategory": 243,
  "sc_title": "Kanalmonterade Fuktgivare, stegvis elektriska, fuktvakt, larmande funktion",
  "sc_usercode_syntax": "GM6xy",
  "etim": null,
  "aff": null
}