{
  "mc_schema": 7,
  "sc_bsabE": "",
  "sc_code": "UBK.22",
  "sc_comment": "Ny i BIP 1.3",
  "sc_id": 2528,
  "sc_maincategory": 247,
  "sc_title": "Rummonterade, Givare, Koncentration, kontinuerliga elektriska. Styrande-stegvis",
  "sc_usercode_syntax": "GQ5xz",
  "etim": null,
  "aff": null
}