{
  "mc_schema": 7,
  "sc_bsabE": "",
  "sc_code": "UBH.32",
  "sc_comment": "Ny i BIP 1.3",
  "sc_id": 2543,
  "sc_maincategory": 246,
  "sc_title": "Rörmonterade Givare, Hastighet, kontinuerliga elektriska. Vakt Larmande/Styrande",
  "sc_usercode_syntax": "GS7xy",
  "etim": null,
  "aff": null
}