{
  "mc_schema": 2,
  "sc_bsabE": "",
  "sc_code": "PNU.516",
  "sc_comment": "Ny i BIP 1.4",
  "sc_id": 2554,
  "sc_maincategory": 153,
  "sc_title": "Ledningar av PB-rör i skyddsrör",
  "sc_usercode_syntax": "P81",
  "etim": null,
  "aff": null
}