{
  "mc_schema": 2,
  "sc_bsabE": "",
  "sc_code": "PNU.223",
  "sc_comment": "Rev BSABwr i BIP 1.5",
  "sc_id": 2557,
  "sc_maincategory": 153,
  "sc_title": "Ledningar av rostfritt, syrafast tunnväggiga pressrör EN 1.4521 (medicinska gaser)",
  "sc_usercode_syntax": "R73",
  "etim": "EC010950",
  "aff": null
}