{
  "mc_schema": 6,
  "sc_bsabE": "",
  "sc_code": "PB-.5215",
  "sc_comment": "Ny för VA i BIP 1.4",
  "sc_id": 2578,
  "sc_maincategory": 130,
  "sc_title": "PP markavloppsrör, profilerade, i mark",
  "sc_usercode_syntax": "P21",
  "etim": null,
  "aff": null
}