{
  "mc_schema": 6,
  "sc_bsabE": "",
  "sc_code": "PB-.21321",
  "sc_comment": "Rev i BIP 1.5 (Stålflex se S7D)",
  "sc_id": 2584,
  "sc_maincategory": 130,
  "sc_title": "Stålrör P235GH, EN10217-2, Svetsade, PN 16. +  PUR-isolering och PE mantel, Förisolerad Dubbelrörskulvert, Twin",
  "sc_usercode_syntax": "S5D",
  "etim": null,
  "aff": null
}