{
  "mc_schema": 2,
  "sc_bsabE": "",
  "sc_code": "PNU.5143",
  "sc_comment": "Ny i BIP 1.4",
  "sc_id": 2587,
  "sc_maincategory": 153,
  "sc_title": "Förisolerat PEXrör värme/kyla med skyddsrör. DubbelrörsKulvert i byggnad. (Ecoflex Thermo, Twin)",
  "sc_usercode_syntax": "X8D",
  "etim": null,
  "aff": null
}