{
  "mc_schema": 2,
  "sc_bsabE": "",
  "sc_code": "RBA.14",
  "sc_comment": "Ny i BIP 1.4, AMA 16",
  "sc_id": 2598,
  "sc_maincategory": 222,
  "sc_title": "Rörskål av mineralull med ytskikt av armerad aluminiumfolie. Tjocklek 100 mm",
  "sc_usercode_syntax": "-F100",
  "etim": null,
  "aff": null
}