{
  "mc_schema": 2,
  "sc_bsabE": "",
  "sc_code": "PNU.5143",
  "sc_comment": "Rev i BIP 1.5",
  "sc_id": 2599,
  "sc_maincategory": 153,
  "sc_title": "Förisolerade Alupex kompositrör (PEX, alu), med mantelrör av polyeten",
  "sc_usercode_syntax": "X71",
  "etim": null,
  "aff": null
}