{
  "mc_schema": 6,
  "sc_bsabE": "",
  "sc_code": "PB-.53",
  "sc_comment": "Ny i BIP 1.5",
  "sc_id": 2606,
  "sc_maincategory": 130,
  "sc_title": "PVC-rör dräneringsrör i mark",
  "sc_usercode_syntax": "C7",
  "etim": null,
  "aff": null
}