{
  "mc_schema": 2,
  "sc_bsabE": "",
  "sc_code": "PLC.411",
  "sc_comment": "Ny i BIP 1.5",
  "sc_id": 2608,
  "sc_maincategory": 147,
  "sc_title": "Expansionskärl med tryckhållning med pump",
  "sc_usercode_syntax": "EXP5xx",
  "etim": null,
  "aff": null
}