{
  "mc_schema": 6,
  "sc_bsabE": "",
  "sc_code": "PB-.5122",
  "sc_comment": "Ny i BIP 1,5",
  "sc_id": 2619,
  "sc_maincategory": 130,
  "sc_title": "Förisolerade ledningar av PEH, PN16, med mantelrör PE, med självreglerande värmekabel",
  "sc_usercode_syntax": "E32",
  "etim": null,
  "aff": null
}