{
  "mc_schema": 1,
  "sc_bsabE": "",
  "sc_code": "REI.221",
  "sc_comment": "Rev BSABwr. Tjocklek 20 mm, Ny i BIP 1.5",
  "sc_id": 2666,
  "sc_maincategory": 395,
  "sc_title": "Ludisolering utvändigt, med nätmattor av mineralull 20 mm beklädda utv med al. folie för rektangulära kanaler",
  "sc_usercode_syntax": "-L202",
  "etim": null,
  "aff": null
}