{
  "mc_schema": 8,
  "sc_bsabE": "",
  "sc_code": "PNU.2114",
  "sc_comment": "Ny i BIP 1.5",
  "sc_id": 2701,
  "sc_maincategory": 321,
  "sc_title": "Ledningar av skyddsmålade stålrör tunga",
  "sc_usercode_syntax": "S3",
  "etim": null,
  "aff": null
}