{
  "mc_schema": 2,
  "sc_bsabE": "",
  "sc_code": "PNU.516",
  "sc_comment": "Ny i BIP 1.5",
  "sc_id": 2715,
  "sc_maincategory": 153,
  "sc_title": "Ledningar av PB-rör, förisolerade i  skyddsrör",
  "sc_usercode_syntax": "P82",
  "etim": null,
  "aff": null
}