{
  "mc_schema": 2,
  "sc_bsabE": "",
  "sc_code": "PUD.2",
  "sc_comment": "Ny i BIP 1.5",
  "sc_id": 2744,
  "sc_maincategory": 178,
  "sc_title": "Dricksfontäner med dricksvattenkylare",
  "sc_usercode_syntax": "DFK1xx",
  "etim": "EC011779",
  "aff": null
}