{
  "mc_schema": 2,
  "sc_bsabE": "",
  "sc_code": "PVB.24",
  "sc_comment": "Ny i BIP 1.5",
  "sc_id": 2756,
  "sc_maincategory": 182,
  "sc_title": "Disklådsblandare",
  "sc_usercode_syntax": "BL7xx",
  "etim": "EC011431",
  "aff": null
}