{
  "mc_schema": 2,
  "sc_bsabE": "",
  "sc_code": "PNU.71",
  "sc_comment": "Ny i BIP 1.5",
  "sc_id": 2759,
  "sc_maincategory": 153,
  "sc_title": "Slangledningar av butylgummi med rostfri omflätning.",
  "sc_usercode_syntax": "N2",
  "etim": null,
  "aff": null
}