{
  "mc_schema": 2,
  "sc_bsabE": "",
  "sc_code": "RCB.22",
  "sc_comment": "Ny i BIP 1.5",
  "sc_id": 2792,
  "sc_maincategory": 225,
  "sc_title": "Vågprofilerad aluminiumplåt på isolerad rörledning. ",
  "sc_usercode_syntax": "-I",
  "etim": null,
  "aff": null
}