{
  "mc_schema": 2,
  "sc_bsabE": "",
  "sc_code": "RCB.51",
  "sc_comment": "Ny i BIP 1.5",
  "sc_id": 2794,
  "sc_maincategory": 225,
  "sc_title": "Ytskiktslaminerad papp på isolerad rörledning",
  "sc_usercode_syntax": "-L",
  "etim": null,
  "aff": null
}