{
  "mc_schema": 1,
  "sc_bsabE": "",
  "sc_code": "QEH.2",
  "sc_comment": "Ny i BIP 1.5",
  "sc_id": 2799,
  "sc_maincategory": 195,
  "sc_title": "Rökgasfläktar",
  "sc_usercode_syntax": "RF1xx",
  "etim": null,
  "aff": null
}