{
  "mc_schema": 2,
  "sc_bsabE": "",
  "sc_code": "PNU.52232",
  "sc_comment": "Rev text i BIP 1.7",
  "sc_id": 2809,
  "sc_maincategory": 153,
  "sc_title": "Ledningar av PP-rör, ljuddämpande inomhusavloppsrör, flerskikts.",
  "sc_usercode_syntax": "P51",
  "etim": null,
  "aff": null
}