{
  "mc_schema": 1,
  "sc_bsabE": "",
  "sc_code": "QGD.1",
  "sc_comment": "Ny i BIP 1.5",
  "sc_id": 2821,
  "sc_maincategory": 397,
  "sc_title": "Stoftavskiljare, spärrfilter",
  "sc_usercode_syntax": "STA1xx",
  "etim": "",
  "aff": ""
}