{
  "mc_schema": 2,
  "sc_bsabE": "",
  "sc_code": "PNU.5143",
  "sc_comment": "Ny i BIP 1.5",
  "sc_id": 2831,
  "sc_maincategory": 153,
  "sc_title": "Ledningar av PEX (PE-Xa) rör, Värme / Tappvatten med Rör i Rör (RiR) med prefabricerad isolering av polyeten.",
  "sc_usercode_syntax": "X32",
  "etim": "",
  "aff": ""
}