{
  "mc_schema": 1,
  "sc_bsabE": "",
  "sc_code": "QJC.2",
  "sc_comment": "Ny i BIP 1.6",
  "sc_id": 2835,
  "sc_maincategory": 58,
  "sc_title": "Brand-/Brandgasspjäll, brandteknisk klass, med reglerfunktion",
  "sc_usercode_syntax": "BBGS2xx",
  "etim": "",
  "aff": ""
}