{
  "mc_schema": 11,
  "sc_bsabE": "42.D",
  "sc_code": "NSC.733",
  "sc_comment": "BSAB83:55. Ny i BIP 1.6.",
  "sc_id": 2849,
  "sc_maincategory": 339,
  "sc_title": "Markiser",
  "sc_usercode_syntax": "MK1xx",
  "etim": "",
  "aff": ""
}