{
  "mc_schema": 11,
  "sc_bsabE": "42.D",
  "sc_code": "NSC.734",
  "sc_comment": "BSAB83:55. Ny i BIP 1.6",
  "sc_id": 2851,
  "sc_maincategory": 339,
  "sc_title": "Rullgardiner",
  "sc_usercode_syntax": "RG1xx",
  "etim": "",
  "aff": ""
}