{
  "mc_schema": 11,
  "sc_bsabE": "45.B",
  "sc_code": "NSK.311",
  "sc_comment": "BSAB-83: 69, Ny i BIP 1.6",
  "sc_id": 2858,
  "sc_maincategory": 349,
  "sc_title": "Trappräcke, utvändigt",
  "sc_usercode_syntax": "TRR1xx",
  "etim": "",
  "aff": ""
}