{
  "mc_schema": 11,
  "sc_bsabE": "45.C",
  "sc_code": "NSK.312",
  "sc_comment": "Ny i BIP 1.6",
  "sc_id": 2860,
  "sc_maincategory": 349,
  "sc_title": "Balkongräcke, invändigt",
  "sc_usercode_syntax": "R2xx",
  "etim": "",
  "aff": ""
}