{
  "mc_schema": 6,
  "sc_bsabE": "",
  "sc_code": "CEC.2113",
  "sc_comment": "Ny i BIP 1.6",
  "sc_id": 2899,
  "sc_maincategory": 403,
  "sc_title": "Ledningsbädd för gasledning",
  "sc_usercode_syntax": "LFY3xx",
  "etim": "",
  "aff": ""
}