{
  "mc_schema": 6,
  "sc_bsabE": "",
  "sc_code": "CEC.3114",
  "sc_comment": "Ny i BIP 1.6",
  "sc_id": 2906,
  "sc_maincategory": 403,
  "sc_title": "Kringfyllning för ledning i väg, plan o d kategori A samt järnväg",
  "sc_usercode_syntax": "KFY4xx",
  "etim": "",
  "aff": ""
}