{
  "mc_schema": 13,
  "sc_bsabE": "",
  "sc_code": "DCG.112",
  "sc_comment": "Ny i BIP 1.6",
  "sc_id": 2918,
  "sc_maincategory": 406,
  "sc_title": "Beläggning av storgatsten",
  "sc_usercode_syntax": "SGN3xx",
  "etim": "",
  "aff": ""
}