{
  "mc_schema": 13,
  "sc_bsabE": "",
  "sc_code": "DCL.111",
  "sc_comment": "Ny i BIP 1.6",
  "sc_id": 2921,
  "sc_maincategory": 406,
  "sc_title": "Växtbädd typ 1",
  "sc_usercode_syntax": "OPY1xx",
  "etim": "",
  "aff": ""
}