{
  "mc_schema": 13,
  "sc_bsabE": "",
  "sc_code": "DBB.8",
  "sc_comment": "Ny i BIP 1.6",
  "sc_id": 2944,
  "sc_maincategory": 407,
  "sc_title": "Diverse lager av geosyntet",
  "sc_usercode_syntax": "GFS8xx",
  "etim": "",
  "aff": ""
}