{
  "mc_schema": 13,
  "sc_bsabE": "",
  "sc_code": "DCB.3",
  "sc_comment": "Ny i BIP 1.6",
  "sc_id": 2946,
  "sc_maincategory": 406,
  "sc_title": "Obundet bärlager för väg, plan o d",
  "sc_usercode_syntax": "OFL3xx",
  "etim": "",
  "aff": ""
}