{
  "mc_schema": 13,
  "sc_bsabE": "",
  "sc_code": "CEB.8",
  "sc_comment": "Ny i BIP 1.6",
  "sc_id": 2958,
  "sc_maincategory": 408,
  "sc_title": "Diverse fyllning",
  "sc_usercode_syntax": "FFY8xx",
  "etim": "",
  "aff": ""
}