{
  "mc_schema": 13,
  "sc_bsabE": "",
  "sc_code": "DCK.22",
  "sc_comment": "Ny i BIP 1.6",
  "sc_id": 2959,
  "sc_maincategory": 406,
  "sc_title": "Erosionsskydd av betongmadrasser",
  "sc_usercode_syntax": "SKR2xx",
  "etim": "",
  "aff": ""
}