{
  "mc_schema": 13,
  "sc_bsabE": "",
  "sc_code": "DCC.1",
  "sc_comment": "Ny i BIP 1.6",
  "sc_id": 2974,
  "sc_maincategory": 406,
  "sc_title": "Bitumenbundna överbyggnadslager kategori A för väg, plan o d",
  "sc_usercode_syntax": "OBB1xx",
  "etim": "",
  "aff": ""
}