{
  "mc_schema": 1,
  "sc_bsabE": "",
  "sc_code": "QLG.1",
  "sc_comment": "Ny i BIP 1.6",
  "sc_id": 2983,
  "sc_maincategory": 374,
  "sc_title": "Dräneringsanlutning, ventilationskanal.",
  "sc_usercode_syntax": "DRAN7xx",
  "etim": "",
  "aff": ""
}