{
  "mc_schema": 15,
  "sc_bsabE": "",
  "sc_code": "RB",
  "sc_comment": "Rev i BIP 1.7",
  "sc_id": 3012,
  "sc_maincategory": 417,
  "sc_title": "R5 enligt Branschstandard teknisk isolering, BTI. tekniskisolering.se/bti/",
  "sc_usercode_syntax": "R5",
  "etim": "",
  "aff": ""
}