{
  "mc_schema": 15,
  "sc_bsabE": "",
  "sc_code": "RB",
  "sc_comment": "Rev i BIP 1.7",
  "sc_id": 3019,
  "sc_maincategory": 425,
  "sc_title": "V4 enligt Branschstandard teknisk isolering, BTI. tekniskisolering.se/bti/",
  "sc_usercode_syntax": "V4",
  "etim": "",
  "aff": ""
}