{
  "mc_schema": 2,
  "sc_bsabE": "",
  "sc_code": "RBA.14",
  "sc_comment": "Rev i BIP 1.7. ƙ enligt isoleringsklass branschstandard BTI. Ex texttagg: -R5DW40 för ƙ=R5, tjocklek=40 mm",
  "sc_id": 3027,
  "sc_maincategory": 222,
  "sc_title": "Rörskål av mineralull med ytskikt av armerad aluminiumfolie (W). Diffusionstät. Upphängning med Distansskål (enligt PPC.111). Isolertjocklek aab mm enligt tabell i texttagg -ƙDWaab, egenskap: InsulationThickness.",
  "sc_usercode_syntax": "-ƙDW",
  "etim": "",
  "aff": ""
}