{
  "mc_schema": 6,
  "sc_bsabE": "",
  "sc_code": "PEC.412",
  "sc_comment": "Ny i BIP 1.6",
  "sc_id": 3093,
  "sc_maincategory": 431,
  "sc_title": "Luftningsanordning på tryckspillvattenledning",
  "sc_usercode_syntax": "SLV3xx",
  "etim": "",
  "aff": ""
}