{
  "mc_schema": 2,
  "sc_bsabE": "",
  "sc_code": "UGK.3",
  "sc_comment": "Ny i BIP 1.7",
  "sc_id": 3097,
  "sc_maincategory": 260,
  "sc_title": "Mätare för koncentration, rörmonterade",
  "sc_usercode_syntax": "MKQ1xx",
  "etim": "",
  "aff": ""
}