{
  "mc_schema": 2,
  "sc_bsabE": "",
  "sc_code": "PNU.2221",
  "sc_comment": "Ny i BIP 1.7",
  "sc_id": 3113,
  "sc_maincategory": 153,
  "sc_title": "Ledningar av rostfritt stål, EN 1.4404. Lättviktsrör, längdsvetsade, rillkoppling",
  "sc_usercode_syntax": "R31",
  "etim": "",
  "aff": ""
}