{
  "mc_schema": 3,
  "sc_bsabE": "",
  "sc_code": "SHD",
  "sc_comment": "Ny i BIP 1.7",
  "sc_id": 3120,
  "sc_maincategory": 96,
  "sc_title": "Solsträngsoptimerare",
  "sc_usercode_syntax": "RB4xx",
  "etim": "",
  "aff": ""
}