{
  "mc_schema": 17,
  "sc_bsabE": "",
  "sc_code": "BEE",
  "sc_comment": "Ny i BIP 1.7",
  "sc_id": 3158,
  "sc_maincategory": 440,
  "sc_title": "Fördjupning (Recess)",
  "sc_usercode_syntax": "VOID03",
  "etim": "",
  "aff": ""
}