{
  "mc_schema": 2,
  "sc_bsabE": "",
  "sc_code": "RBB.111",
  "sc_comment": "Ny i BIP 1.7",
  "sc_id": 3164,
  "sc_maincategory": 223,
  "sc_title": "Isolering av syntetiskt cellgummi med brandkrav på rörledning som är placerad tex i utrymningsväg. Tjocklek 13 mm",
  "sc_usercode_syntax": "-U13",
  "etim": "",
  "aff": ""
}