{
  "mc_schema": 4,
  "sc_bsabE": "",
  "sc_code": "SGE.12",
  "sc_comment": "Ny i BIP 1.7 (OBS: andra tecknet är en nolla)",
  "sc_id": 3174,
  "sc_maincategory": 442,
  "sc_title": "Gränssnittsenhet, Router",
  "sc_usercode_syntax": "D0K4xx",
  "etim": "",
  "aff": ""
}