{
  "mc_schema": 4,
  "sc_bsabE": "",
  "sc_code": "SGC.111",
  "sc_comment": "Ny i BIP 1.7",
  "sc_id": 3176,
  "sc_maincategory": 442,
  "sc_title": "Digitalingång, KNX-system",
  "sc_usercode_syntax": "D1K3xx",
  "etim": "",
  "aff": ""
}