{
  "mc_schema": 4,
  "sc_bsabE": "",
  "sc_code": "SLF.22",
  "sc_comment": "Ny i BIP 1.7",
  "sc_id": 3177,
  "sc_maincategory": 443,
  "sc_title": "Närvarodetektor, KNX-system",
  "sc_usercode_syntax": "D2B9xx",
  "etim": "",
  "aff": ""
}