{
  "mc_schema": 1,
  "sc_bsabE": "",
  "sc_code": "QMA.1",
  "sc_comment": "Ny i BIP 1.7",
  "sc_id": 3194,
  "sc_maincategory": 74,
  "sc_title": "Spiskåpa",
  "sc_usercode_syntax": "SK1xx",
  "etim": "",
  "aff": ""
}