{
    "mc_schema": 2,
    "sc_bsabE": "",
    "sc_code": "RBA.11",
    "sc_comment": "Rev i BIP 1.7. ƙ enligt isoleringsklass branschstandard BTI. Ex texttagg: -R2PV30 för ƙ=R2, tjocklek=30 mm",
    "sc_id": 3240,
    "sc_maincategory": 222,
    "sc_title": "Termisk isolering av fenolskum med aluminiumfolieskikt på rörledning (V). Upphängning med klamSvep. Isolertjocklek aab mm enligt tabell i texttagg -ƙSPaab, egenskap: InsulationThickness",
    "sc_usercode_syntax": "-ƙSP",
    "etim": "",
    "aff": ""
  }