{
    "mc_schema": 17,
    "sc_bsabE": "",
    "sc_code": "DEQ.11",
    "sc_comment": "Ny i BIP 2.1",
    "sc_id": 3245,
    "sc_maincategory": 449,
    "sc_title": "Tunnelduk för att skydda installationer i tunnlar",
    "sc_usercode_syntax": "TUD0xx",
    "etim": "",
    "aff": ""
  }