{
    "mc_schema": 8,
    "sc_bsabE": null,
    "sc_code": "PNU.212",
    "sc_comment": "Ny i BIP 2.1",
    "sc_id": 3249,
    "sc_maincategory": 321,
    "sc_title": "Ledningar av förzinkade/galvade stålrör, Handelstuber, SS-EN 10296-1 SPR (DIN 1626/2458)",
    "sc_usercode_syntax": "S42",
    "etim": null,
    "aff": null
  }