{
  "pr_id": 65,
  "prop_title": "SpaceName",
  "prop_comment": "Rumsnamn. Space name. För E, V, K i rumsnamn i objekt (Från A egenskap Room Name)",
  "prop_example": "KONTOR",
  "prop_architect": true,
  "prop_construct": true,
  "prop_electricity": true,
  "prop_mep": true,
  "prop_class": "A",
  "prop_datatype": "Label",
  "prop_title_url": null,
  "prop_comment_url": null,
  "prop_priority": 2,
  "prop_space": null
}