{
  "pr_id": 81,
  "prop_title": "AFF",
  "prop_comment": "AFF Koder specifika för förvaltning. Ex T4.235 (Apparater för torkning av tryckluft)",
  "prop_example": "",
  "prop_architect": true,
  "prop_construct": true,
  "prop_electricity": true,
  "prop_mep": true,
  "prop_class": "A",
  "prop_datatype": "Label",
  "prop_title_url": null,
  "prop_comment_url": null,
  "prop_priority": 4,
  "prop_space": null
}