{
  "pr_id": 93,
  "prop_title": "Manufacturer",
  "prop_comment": "Tillverkare, typ Lindab",
  "prop_example": "Lindab",
  "prop_architect": true,
  "prop_construct": true,
  "prop_electricity": true,
  "prop_mep": true,
  "prop_class": "C",
  "prop_datatype": "Label",
  "prop_title_url": null,
  "prop_comment_url": null,
  "prop_priority": 3,
  "prop_space": null
}