{
  "pr_id": 112,
  "prop_title": "ptot_mbar",
  "prop_comment": "summerat Tryckfall vid punkt",
  "prop_example": "",
  "prop_architect": false,
  "prop_construct": false,
  "prop_electricity": false,
  "prop_mep": true,
  "prop_class": "F",
  "prop_datatype": "Pressure",
  "prop_title_url": null,
  "prop_comment_url": null,
  "prop_priority": 4,
  "prop_space": null
}