{
  "pr_id": 129,
  "prop_title": "Width",
  "prop_comment": "Breddmått",
  "prop_example": "400 mm",
  "prop_architect": true,
  "prop_construct": true,
  "prop_electricity": true,
  "prop_mep": true,
  "prop_class": "S",
  "prop_datatype": "PositiveLength",
  "prop_title_url": null,
  "prop_comment_url": null,
  "prop_priority": 4,
  "prop_space": null
}