{
  "pr_id": 131,
  "prop_title": "Voltage_V",
  "prop_comment": "Elektrisk Spänning",
  "prop_example": "",
  "prop_architect": false,
  "prop_construct": false,
  "prop_electricity": true,
  "prop_mep": true,
  "prop_class": "F",
  "prop_datatype": "ElectricVoltage",
  "prop_title_url": null,
  "prop_comment_url": null,
  "prop_priority": 4,
  "prop_space": null
}