{
  "pr_id": 154,
  "prop_title": "CoolingPower_W",
  "prop_comment": "Kyleffekt för VVS i Watt",
  "prop_example": "",
  "prop_architect": false,
  "prop_construct": false,
  "prop_electricity": false,
  "prop_mep": true,
  "prop_class": "F",
  "prop_datatype": "Power",
  "prop_title_url": "",
  "prop_comment_url": "",
  "prop_priority": 4,
  "prop_space": null
}