{
  "pr_id": 173,
  "prop_title": "RoughWidth",
  "prop_comment": "Öppningsmått, Bredd",
  "prop_example": "850",
  "prop_architect": true,
  "prop_construct": true,
  "prop_electricity": false,
  "prop_mep": false,
  "prop_class": "F",
  "prop_datatype": "Length",
  "prop_title_url": "",
  "prop_comment_url": "Ny i BIP 1.5",
  "prop_priority": 5,
  "prop_space": null
}