{
  "pr_id": 184,
  "prop_title": "Name",
  "prop_comment": "Rumsnamn för Space (Room)",
  "prop_example": "KONTOR",
  "prop_architect": false,
  "prop_construct": false,
  "prop_electricity": false,
  "prop_mep": false,
  "prop_class": "A",
  "prop_datatype": "Label",
  "prop_title_url": "",
  "prop_comment_url": "Ny i BIP 1.6",
  "prop_priority": 2,
  "prop_space": true
}