{
  "pr_id": 194,
  "prop_title": "Angle",
  "prop_comment": "Vinkel i grader",
  "prop_example": "45",
  "prop_architect": true,
  "prop_construct": true,
  "prop_electricity": true,
  "prop_mep": true,
  "prop_class": "5",
  "prop_datatype": "Label / PlaneAngle",
  "prop_title_url": "",
  "prop_comment_url": "Ny 2020-10-13",
  "prop_priority": 3,
  "prop_space": null
}