{
  "pr_id": 199,
  "prop_title": "Weight",
  "prop_comment": "Vikt",
  "prop_example": "20 kg",
  "prop_architect": true,
  "prop_construct": true,
  "prop_electricity": true,
  "prop_mep": true,
  "prop_class": "S",
  "prop_datatype": "Real",
  "prop_title_url": "",
  "prop_comment_url": "",
  "prop_priority": 5,
  "prop_space": null
}