{
  "pr_id": 201,
  "prop_title": "Slope",
  "prop_comment": "Ett rörs eller en kanals lutning i promille",
  "prop_example": "10.00‰",
  "prop_architect": false,
  "prop_construct": false,
  "prop_electricity": false,
  "prop_mep": true,
  "prop_class": "F",
  "prop_datatype": "Real",
  "prop_title_url": "",
  "prop_comment_url": "",
  "prop_priority": 6,
  "prop_space": null
}