{
  "sys_id": 7,
  "sys_discipline": "VA",
  "sys_type_id": "Sxx",
  "sys_maincategory": "Spillvattensystem",
  "sys_subcategory": "Spillvatten",
  "sys_type": "",
  "sys_sub": "SxxL",
  "sys_bsab": "51.CB",
  "sys_coclass": "G10",
  "sys_comment": "SxxL = Luftledning",
  "aff": "SC4.3"
}