{
  "sys_id": 30,
  "sys_discipline": "Gas",
  "sys_type_id": "L7x",
  "sys_maincategory": "Tryckluftssystem med särskilt krav på renhet",
  "sys_subcategory": "Luft lab",
  "sys_type": "",
  "sys_sub": "",
  "sys_bsab": "52.FC",
  "sys_coclass": "E52",
  "sys_comment": "",
  "aff": "SC4.4.1"
}