{
  "sys_id": 34,
  "sys_discipline": "Gas",
  "sys_type_id": "GV30",
  "sys_maincategory": "Vakuumsystem",
  "sys_subcategory": "Vakuumutsug. Diatermi",
  "sys_type": "",
  "sys_sub": "",
  "sys_bsab": "52.G",
  "sys_coclass": "E70",
  "sys_comment": "",
  "aff": "SC4"
}