{
  "sys_id": 43,
  "sys_discipline": "Gas",
  "sys_type_id": "GN61",
  "sys_maincategory": "System för medicinsk gas",
  "sys_subcategory": "Nitrogen",
  "sys_type": "",
  "sys_sub": "",
  "sys_bsab": "52.HB",
  "sys_coclass": "E30",
  "sys_comment": "G6",
  "aff": "SC4.4.2"
}