{
  "sys_id": 58,
  "sys_discipline": "VS",
  "sys_type_id": "Kxx",
  "sys_maincategory": "Avloppsvattensystem",
  "sys_subcategory": "Kondensat",
  "sys_type": "",
  "sys_sub": "",
  "sys_bsab": "53.B",
  "sys_coclass": "K10",
  "sys_comment": "Kondensvatten från kylanl.",
  "aff": "SC4.3"
}