{
  "sys_id": 64,
  "sys_discipline": "VS",
  "sys_type_id": "Sxx",
  "sys_maincategory": "Normalspillvattensystem",
  "sys_subcategory": "Spillvatten",
  "sys_type": "",
  "sys_sub": "SxxL",
  "sys_bsab": "53.BBB",
  "sys_coclass": "G11",
  "sys_comment": "SxxL = Luftledning",
  "aff": "SC4.3"
}