{
  "sys_id": 110,
  "sys_discipline": "Vent",
  "sys_type_id": "ELxx",
  "sys_maincategory": "Allmänventilationssystem",
  "sys_subcategory": "Ersättningsluftsystem",
  "sys_type": "",
  "sys_sub": "",
  "sys_bsab": "57.B",
  "sys_coclass": "J10.JJ11",
  "sys_comment": "",
  "aff": "SC4.7"
}