{
  "sys_id": 138,
  "sys_discipline": "Tele",
  "sys_type_id": "H9",
  "sys_maincategory": "Teletekniska kontrollsystem",
  "sys_subcategory": "Integrerade säkerhetssystem",
  "sys_type": "",
  "sys_sub": "",
  "sys_bsab": "64.C",
  "sys_coclass": "P",
  "sys_comment": "",
  "aff": "SG"
}