{
  "sys_id": 145,
  "sys_discipline": "Tele",
  "sys_type_id": "H4",
  "sys_maincategory": "Teletekniska kontrollsystem",
  "sys_subcategory": "Passerkontroll",
  "sys_type": "",
  "sys_sub": "",
  "sys_bsab": "64.CCB",
  "sys_coclass": "P20.LD20",
  "sys_comment": "",
  "aff": "SG2.1.1"
}