{
  "sys_id": 148,
  "sys_discipline": "Tele",
  "sys_type_id": "C1",
  "sys_maincategory": "Teletekniska signalsystem",
  "sys_subcategory": "Entrésignal",
  "sys_type": "",
  "sys_sub": "",
  "sys_bsab": "64.DBB",
  "sys_coclass": "M34",
  "sys_comment": "",
  "aff": "SC6.1"
}