{
  "sys_id": 149,
  "sys_discipline": "Tele",
  "sys_type_id": "C2",
  "sys_maincategory": "Teletekniska signalsystem",
  "sys_subcategory": "Kallelsesignal",
  "sys_type": "",
  "sys_sub": "",
  "sys_bsab": "64.DBC",
  "sys_coclass": "M32",
  "sys_comment": "",
  "aff": "SC6.1"
}