{
  "sys_id": 175,
  "sys_discipline": "El",
  "sys_type_id": "66.C",
  "sys_maincategory": "System för spänningsutjämning i teletekniskt system",
  "sys_subcategory": "System för spänningsutjämning i teletekniskt system",
  "sys_type": "",
  "sys_sub": "",
  "sys_bsab": "66.C",
  "sys_coclass": "K.KH10",
  "sys_comment": "",
  "aff": "SC5.6"
}