{
  "sys_id": 181,
  "sys_discipline": "El",
  "sys_type_id": "66.H",
  "sys_maincategory": "System för begränsning av elektriska eller magnetiska fält",
  "sys_subcategory": "System för begränsning av elektriska eller magnetiska fält",
  "sys_type": "",
  "sys_sub": "",
  "sys_bsab": "66.H",
  "sys_coclass": "P40.PJ",
  "sys_comment": "",
  "aff": "SC5"
}