{
  "sys_id": 194,
  "sys_discipline": "Transport",
  "sys_type_id": "75",
  "sys_maincategory": "Rörpostsystem",
  "sys_subcategory": "Rörpost",
  "sys_type": "",
  "sys_sub": "",
  "sys_bsab": "75",
  "sys_coclass": "N20.JM23",
  "sys_comment": "BSABwr: WE",
  "aff": "SC7.4"
}