{
  "sys_id": 197,
  "sys_discipline": "SPR",
  "sys_type_id": "FUSxx, Utgår",
  "sys_maincategory": "Vattensläcksystem - sprinklersystem ",
  "sys_subcategory": "Förutlösningssystem",
  "sys_type": "",
  "sys_sub": "",
  "sys_bsab": "54.B/1",
  "sys_coclass": "-",
  "sys_comment": "Utgår i BIP 1,1 se istället SPPxx",
  "aff": "SC1.2.2"
}