{
  "sys_id": 225,
  "sys_discipline": "El",
  "sys_type_id": "63.BD",
  "sys_maincategory": "ELKRAFTSYSTEM",
  "sys_subcategory": "Klenspänningsnät",
  "sys_type": "",
  "sys_sub": "",
  "sys_bsab": "63.BD",
  "sys_coclass": "K.JK140",
  "sys_comment": "Ny BIP system 1.1",
  "aff": "SC5.1"
}