{
  "sys_id": 233,
  "sys_discipline": "El",
  "sys_type_id": "63.FHC",
  "sys_maincategory": "Belysnings- och ljussystem",
  "sys_subcategory": "Reservbelysningssystem",
  "sys_type": "",
  "sys_sub": "",
  "sys_bsab": "63.FHC",
  "sys_coclass": "Q40",
  "sys_comment": "Ny i BIP system 1.2",
  "aff": "SC5.2"
}