{
  "sys_id": 242,
  "sys_discipline": "Gas",
  "sys_type_id": "GC37",
  "sys_maincategory": "Specialgassystem",
  "sys_subcategory": "Lungtestgas CO (C2H2, CH4)",
  "sys_type": "",
  "sys_sub": "",
  "sys_bsab": "52.HB",
  "sys_coclass": "E30",
  "sys_comment": "",
  "aff": "SC4"
}